…
```
```{r include=FALSE}
# 2.0 Importing Files ----
# A good convention is to use the file name and suffix it with tbl for the data structure tibble
bikes_tbl      <- read_excel(path = "/Users/rajat/Desktop/00_data/01_bike_sales/01_raw_data/bikes.xlsx")
orderlines_tbl <- read_excel("/Users/rajat/Desktop/00_data/01_bike_sales/01_raw_data/orderlines.xlsx")

# Not necessary for this analysis, but for the sake of completeness
bikeshops_tbl  <- read_excel("/Users/rajat/Desktop/00_data/01_bike_sales/01_raw_data/bikeshops.xlsx")
```

```{r include=FALSE}
# If the data has no common column name, you can provide each column name in the "by" argument. For example, by = c("a" = "b") will match x.a to y.b. The order of the columns has to match the order of the tibbles).
left_join(orderlines_tbl, bikes_tbl, by = c("product.id" = "bike.id"))
## # A tibble: 15,644 x 15
##    ...1  order.id order.line order.date          customer.id
##    <chr>    <dbl>      <dbl> <dttm>                    <dbl>
##  1 1            1          1 2015-01-07 00:00:00           2
##  2 2            1          2 2015-01-07 00:00:00           2
##  3 3            2          1 2015-01-10 00:00:00          10
##  4 4            2          2 2015-01-10 00:00:00          10
##  5 5            3          1 2015-01-10 00:00:00           6
##  6 6            3          2 2015-01-10 00:00:00           6
##  7 7            3          3 2015-01-10 00:00:00           6
##  8 8            3          4 2015-01-10 00:00:00           6
##  9 9            3          5 2015-01-10 00:00:00           6
## 10 10           4          1 2015-01-11 00:00:00          22
## # … with 15,634 more rows, and 10 more variables:
## #   product.id <dbl>, quantity <dbl>, model <chr>,
## #   model.year <dbl>, frame.material <chr>, weight <dbl>,
## #   price <dbl>, category <chr>, gender <chr>, url <chr>
…
